<?xml version="1.0" encoding="utf-8"?>
<!-- Generator: Adobe Illustrator 19.0.1, SVG Export Plug-In . SVG Version: 6.00 Build 0)  -->
<svg version="1.1" id="Layer_1" xmlns="http://www.w3.org/2000/svg" xmlns:xlink="http://www.w3.org/1999/xlink" x="0px" y="0px"
	 viewBox="-951 135.1 15.7 30.9" style="enable-background:new -951 135.1 15.7 30.9;" xml:space="preserve">
<style type="text/css">
	.st0{fill:#AFB4AA;}
</style>
<g>
	<g>
		<path class="st0" d="M-943.2,150.8c-4.3,0-7.8-3.5-7.8-7.9c0-4.4,3.5-7.8,7.8-7.8s7.8,3.5,7.8,7.8S-938.8,150.8-943.2,150.8z
			 M-943.2,135.6c-4,0-7.3,3.3-7.3,7.3s3.3,7.3,7.3,7.3s7.3-3.3,7.3-7.3C-935.8,138.9-939.1,135.6-943.2,135.6z"/>
	</g>
	<g>
		<path class="st0" d="M-943.2,154.6c-4.3,0-7.8-3.5-7.8-7.9c0-4.4,3.5-7.8,7.8-7.8s7.8,3.5,7.8,7.8
			C-935.4,151-938.8,154.6-943.2,154.6z M-943.2,139.4c-4,0-7.3,3.3-7.3,7.3s3.3,7.3,7.3,7.3s7.3-3.3,7.3-7.3
			C-935.8,142.7-939.1,139.4-943.2,139.4z"/>
	</g>
	<g>
		<path class="st0" d="M-943.2,158.4c-4.3,0-7.8-3.5-7.8-7.8s3.5-7.8,7.8-7.8s7.8,3.5,7.8,7.8S-938.8,158.4-943.2,158.4z
			 M-943.2,143.2c-4,0-7.3,3.3-7.3,7.3s3.3,7.3,7.3,7.3s7.3-3.3,7.3-7.3C-935.8,146.5-939.1,143.2-943.2,143.2z"/>
	</g>
	<g>
		<path class="st0" d="M-943.2,162.2c-4.3,0-7.8-3.5-7.8-7.8s3.5-7.8,7.8-7.8s7.8,3.5,7.8,7.8S-938.8,162.2-943.2,162.2z
			 M-943.2,147c-4,0-7.3,3.3-7.3,7.3s3.3,7.3,7.3,7.3s7.3-3.3,7.3-7.3C-935.8,150.3-939.1,147-943.2,147z"/>
	</g>
	<g>
		<path class="st0" d="M-943.2,166c-4.3,0-7.8-3.6-7.8-7.9s3.5-7.8,7.8-7.8s7.8,3.5,7.8,7.8S-938.8,166-943.2,166z M-943.2,150.8
			c-4,0-7.3,3.3-7.3,7.3s3.3,7.3,7.3,7.3s7.3-3.3,7.3-7.3C-935.8,154.1-939.1,150.8-943.2,150.8z"/>
	</g>
</g>
</svg>
