<?xml version="1.0" encoding="utf-8"?>
<!-- Generator: Adobe Illustrator 19.0.1, SVG Export Plug-In . SVG Version: 6.00 Build 0)  -->
<svg version="1.0" id="Layer_1" xmlns="http://www.w3.org/2000/svg" xmlns:xlink="http://www.w3.org/1999/xlink" x="0px" y="0px"
	 viewBox="70 25.2 702.1 535.1" enable-background="new 70 25.2 702.1 535.1" xml:space="preserve">
<g>
	<polygon points="109.1,470.9 97.1,444.9 90.6,444.9 90.6,486.9 97.1,486.9 97.1,458.9 106.6,479.1 111.6,479.1 121,458.9 
		121,486.9 127.6,486.9 127.6,444.9 121,444.9 	"/>
	<path d="M157.3,444.9l-15.2,42h6.6l2.9-8.2H168l2.9,8.2h6.6l-15.2-42H157.3z M153.6,472.9l6.6-18.5l6.2,18.5H153.6z"/>
	<path d="M217.4,449c-2.5-2.5-6.6-4.1-10.7-4.1h-14.8v41.6h14.8c4.5,0,8.2-1.2,10.7-4.1c4.5-4.5,4.1-11.1,4.1-17.3
		C221.6,459.3,222,453.6,217.4,449z M213.3,478.3c-1.6,2.1-4.1,2.9-7,2.9h-7.8v-30.5h7.8c2.9,0,5.4,0.8,7,2.9
		c2.1,2.5,2.1,6.2,2.1,11.9S215.4,475.8,213.3,478.3z"/>
	<polygon points="266.5,481.2 245.9,481.2 245.9,468.4 263.6,468.4 263.6,463 245.9,463 245.9,450.7 266.5,450.7 266.5,444.9 
		239.7,444.9 239.7,486.9 266.5,486.9 	"/>
	<rect x="306" y="444.9" width="6.2" height="41.6"/>
	<polygon points="357.1,474.2 337.7,444.9 332,444.9 332,486.9 338.1,486.9 338.1,457.3 357.5,486.9 363.3,486.9 363.3,444.9 
		357.1,444.9 	"/>
	<path d="M434.5,457.7c0-7.4-5.4-12.8-13.2-12.8h-15.7v41.6h6.2V470h9.5C429.6,470.5,434.5,465.1,434.5,457.7z M420.9,464.7h-9.1
		v-14h9.1c4.5,0,7.4,2.5,7.4,7C428.4,462.2,425.5,464.7,420.9,464.7z"/>
	<path d="M464.2,444.5c-4.5,0-8.2,1.6-11.1,4.5c-4.1,4.1-4.1,8.7-4.1,16.9c0,8.2,0,12.8,4.1,16.9c2.9,2.9,6.6,4.5,11.1,4.5
		c4.5,0,8.2-1.6,11.1-4.5c4.1-4.1,4.1-8.7,4.1-16.9c0-8.2,0-12.8-4.1-16.9C472.4,446.2,468.7,444.5,464.2,444.5z M470.4,478.7
		c-1.6,1.6-3.7,2.5-6.2,2.5s-4.9-0.8-6.2-2.5c-2.1-2.1-2.5-4.5-2.5-12.8c0-8.2,0.4-10.7,2.5-12.8c1.6-1.6,3.7-2.5,6.2-2.5
		s4.9,0.8,6.2,2.5c2.1,2.1,2.5,4.5,2.5,12.8C472.9,474.2,472.4,476.6,470.4,478.7z"/>
	<path d="M518.2,468.4c4.5-1.2,8.2-4.9,8.2-11.1c0-7-4.9-12.4-12.8-12.4h-16.1v41.6h6.2v-17.7h7.8l8.7,17.7h7.4L518.2,468.4z
		 M503.7,463.9v-13.2h9.5c4.1,0,7,2.5,7,6.6c0,4.1-2.9,6.6-7,6.6H503.7z"/>
	<polygon points="570.1,444.9 540.4,444.9 540.4,450.7 551.9,450.7 551.9,486.9 558.5,486.9 558.5,450.7 570.1,450.7 	"/>
	<path d="M608.8,472.5c0,5.8-3.3,9.1-8.7,9.1s-8.7-3.3-8.7-9.1v-27.6h-6.2v27.6c0,8.7,6.6,14.4,14.8,14.4c8.7,0,14.8-5.8,14.8-14.4
		v-27.6h-6.2V472.5z"/>
	<path d="M647.1,469.6h9.1v2.5c0,2.9-0.4,4.9-2.1,6.6c-1.6,2.1-4.1,2.9-7,2.9c-2.5,0-4.5-0.8-6.2-2.5c-2.1-2.1-2.5-4.5-2.5-13.2
		s0.4-10.7,2.5-12.8c1.6-1.6,3.7-2.5,6.2-2.5c4.5,0,7.8,2.9,8.7,7.4h6.6c-1.2-7-6.2-12.8-15.2-12.8c-4.5,0-8.2,1.6-11.1,4.5
		c-4.1,4.1-4.1,8.7-4.1,16.9s0,12.8,4.1,16.9c2.9,2.9,6.6,4.5,11.1,4.5s8.2-1.2,11.5-4.9c2.9-2.9,3.7-6.6,3.7-11.9v-6.6h-15.2
		L647.1,469.6L647.1,469.6z"/>
	<path d="M690,444.9l-15.2,41.6h6.6l2.9-8.2h16.5l2.9,8.2h6.6l-15.2-41.6H690z M686.2,472.9l6.6-18.5l6.2,18.5H686.2z"/>
	<polygon points="731.1,444.9 725,444.9 725,486.9 751.3,486.9 751.3,481.2 731.1,481.2 	"/>
	<rect x="258.2" y="543.8" width="14.4" height="2.5"/>
	<polygon points="303.1,559.9 327,559.9 327,557 306,557 306,541.3 324.1,541.3 324.1,538.4 306,538.4 306,522.8 327,522.8 
		327,520.3 303.1,520.3 	"/>
	<path d="M352.1,538.8L348,538c-2.1-0.4-4.5-1.2-5.8-2.5c-1.2-1.2-2.1-2.9-2.1-5.4c0-4.9,3.3-8.2,9.1-8.2c4.5,0,7,1.6,9.5,3.7
		l2.1-2.1c-3.3-2.9-6.6-4.1-11.5-4.1c-7.4,0-12.4,4.1-12.4,10.7c0,2.9,0.8,5.4,3.3,7.4c1.6,1.6,4.1,2.5,7,2.9l4.5,0.8
		c3.3,0.4,4.1,0.8,5.8,2.1s2.1,3.3,2.1,5.4c0,5.4-4.1,8.2-10.3,8.2c-4.9,0-7.8-1.2-11.1-4.5l-2.1,2.1c3.7,3.7,7.4,5.4,13.2,5.4
		c8.2,0,13.2-4.1,13.2-11.1c0-3.3-1.2-5.8-3.3-7.8C357.5,540.1,355.9,539.3,352.1,538.8z"/>
	<polygon points="370.3,522.8 381.8,522.8 381.8,559.9 385.1,559.9 385.1,522.8 396.6,522.8 396.6,520.3 370.3,520.3 	"/>
	<rect x="402" y="555.7" width="4.1" height="4.1"/>
	<polygon points="429.6,526.5 429.6,529.8 437,523.2 437,559.9 439.9,559.9 439.9,520.3 437,520.3 	"/>
	<path d="M467.9,519.9c-6.6,0-10.3,5.4-10.3,11.5s3.7,11.1,10.3,11.1c1.6,0,3.3-0.4,4.5-0.8l-9.1,18.1h2.9l10.3-20.6
		c1.6-3.3,2.1-5.8,2.1-8.2C478.2,524.4,474.5,519.9,467.9,519.9z M467.9,540.1c-4.9,0-7.8-4.1-7.8-8.7c0-5.4,2.9-8.7,7.8-8.7
		c4.5,0,7.8,3.7,7.8,8.7C475.3,536.4,472.4,540.1,467.9,540.1z"/>
	<path d="M499.6,537.6c-1.6,0-3.3,0.4-4.5,0.8l9.1-18.1h-2.9L491,540.9c-1.6,3.3-2.1,5.8-2.1,8.2c0,6.6,3.7,11.1,10.7,11.1
		c6.6,0,10.3-5.4,10.3-11.5C509.9,542.5,506.2,537.6,499.6,537.6z M499.6,557.8c-4.5,0-7.8-3.7-7.8-8.7c0-5.4,2.9-8.7,7.8-8.7
		s7.8,4.1,7.8,8.7C507,554.1,504.2,557.8,499.6,557.8z"/>
	<path d="M531.8,533.9c-3.3,0-5.8,0.8-7.4,2.9v-14h16.5v-2.5h-19v20.2h2.5c0.8-2.5,3.7-4.1,7-4.1c6.6,0,7.4,5.8,7.4,10.7
		c0,2.9,0,6.6-2.5,8.7c-1.2,1.2-3.3,2.1-5.4,2.1c-4.5,0-7-2.5-7.4-6.6h-2.9c0.4,2.9,1.2,4.9,2.5,6.6c1.6,1.6,4.5,2.5,7.8,2.5
		c3.3,0,5.8-0.8,7.8-2.9c2.9-2.9,2.9-6.6,2.9-10.7c0-3.7-0.4-7.8-3.3-10.7C536.7,534.7,534.6,533.9,531.8,533.9z"/>
	<rect x="569.3" y="543.8" width="14.4" height="2.5"/>
	<path d="M351.3,361.7c13.2,0,25.1-7,34.6-16.5c6.2,10.3,17.7,16.5,33.8,16.5c33,0,51.1-34.6,57.3-48.6l33-70
		c3.7-7,6.6-19.8,6.6-25.5c0-21-12.4-34.2-32.5-34.2c-7.8,0-15.2,2.5-21.8,6.6L505,103c9.5-19-14.4-25.5-21.8-9.5l-59.7,131.8
		L388,302.8c-0.4,1.2-1.2,2.5-1.6,3.7c-5.4,10.7-16.9,31.7-35,31.7c-7.8,0-12.8-3.3-12.8-10.3c0-3.7,1.2-9.5,4.5-16.1l49.4-109.2
		c5.8-16.1-16.1-20.6-21.8-4.9c-4.5-9.5-17.3-14.4-28.4-14.4c-33,0-50.7,34.6-57.3,48.6l-33.4,70.4c-3.3,6.6-6.2,18.1-6.2,24.7
		c0,22.7,15.7,33.8,39.1,33.8c13.6,0,25.5-6.2,34.2-15.7C324.1,356.8,335.7,361.7,351.3,361.7z M441.1,241.8
		c5.4-11.5,19.8-34.6,38.3-34.6c16.9,0,13.6,15.2,9.5,25.5L456.8,302c-4.9,10.3-16.9,36.7-37.1,36.7c-13.6,0-16.1-11.5-11.5-23.1
		L441.1,241.8z M284.2,338.6c-16.1,0-16.5-13.6-11.1-25.5l32.1-68.4c4.9-10.3,16.5-37.5,37.1-37.5c17.3,0,16.5,14.8,11.1,26.4
		l-35,74.6C313,318.9,300.2,338.6,284.2,338.6z"/>
	<path d="M498,327.5c0,22.7,15.7,33.8,39.1,33.8c33,0,50.7-34.6,57.3-48.6l33-70c3.7-7,6.6-19.8,6.6-25.5
		c0-22.7-15.7-33.8-39.1-33.8c-33,0-50.7,34.6-57.3,48.6l-33.4,70.4C500.9,309.4,498,320.9,498,327.5z M526,312.7l32.1-68.4
		c4.9-10.3,16.5-37.5,37.1-37.5c17.3,0,16.5,13.2,11.1,25.5l-32.1,69.2c-4.9,10.3-16.9,36.7-37.1,36.7c-9.1,0-15.2-3.7-15.2-10.7
		C521.9,323.8,523.1,318,526,312.7z"/>
	<path d="M750.1,303.2c-4.5,9.1-16.5,35-36.7,35c-16.9,0-13.2-16.1-8.7-26.4l34.2-73.3c2.1-6.2,6.6-19,6.6-26
		c0-38.3-46.6-18.1-32.1-48.6c7-14.8-15.2-21.8-21.4-7.8l-86.9,188.7c-7,16.1,14.8,23.1,21,9.5l72.1-157.4
		c10.3,7.8,25.1,9.1,23.1,20.2c-0.8,3.7-2.5,7.8-4.9,13.2L683,302c-4.5,9.1-6.6,18.5-6.6,26c0,22.7,13.6,33.4,37.1,33.4
		c28.4,0,50.3-32.1,57.7-49.8C776.5,296.6,757.1,290,750.1,303.2z"/>
	<path d="M440.7,73.3c10.7-6.2,17.3-15.7,19.4-28c1.2-6.6-3.7-13.2-10.3-14c-6.6-1.2-13.2,3.7-14,10.3c-0.8,4.9-2.9,7.8-7.4,10.3
		c-16.9,9.9-56.9,4.1-106.7-15.2c-61.4-23.5-146.2-13.2-189.9,52.7c-21.4,32.1-25.1,72.1-10.3,103.8c11.1,23.5,31.3,39.1,54,41.2
		c0.4,0,0.8,0,1.2,0c6.2,0,11.5-4.9,12.4-11.1c0.8-6.6-4.1-12.8-11.1-13.6c-14-1.2-26.8-11.5-34.2-27.2c-9.1-19-11.5-49.4,8.7-79.5
		c26.8-40,86.9-68,153.2-46.1L199.3,285.1c-23.9,51.5-53.6,82.4-80.7,85.3c-13.2,1.2-22.2-4.1-26.4-9.9c-4.1-5.4-11.9-6.6-17.3-2.5
		c-5.4,4.1-6.6,11.9-2.5,17.3c9.5,12.8,25.5,20.2,42.8,20.2c2.1,0,4.1,0,6.2-0.4c26-2.5,64.7-21.8,100.5-99.3L329.1,65.9
		C367.8,79.1,413.9,89,440.7,73.3z"/>
</g>
</svg>
